{
  "Usuarios": {
    "50dCx2KOsBO8BiKb6MNFGsAEr2S2": {
      "Formularios": {
        "1": {
          "descripcion": "Esta quiz tiene la finalidad de medir el nivel de conocimiento de cultura general de los usuarios.",
          "id": 1,
          "id_origen": 1,
          "id_usuario": "50dCx2KOsBO8BiKb6MNFGsAEr2S2",
          "id_usuario_origen": "50dCx2KOsBO8BiKb6MNFGsAEr2S2",
          "preguntas": [
            null,
            {
              "id": 1,
              "opciones": [
                null,
                "Van Gogh",
                "Da Vinci",
                "Miguel Ángel",
                "Diego Rivera"
              ],
              "pregunta": "¿Quién pintó La Noche Estrellada?",
              "tipo": 2
            },
            {
              "id": 2,
              "opciones": [
                null,
                "Océano pacífico",
                "Océano atlántico",
                "Océano índico",
                "Océano ártico"
              ],
              "pregunta": "¿Cuál es el Océano más grande del mundo?",
              "tipo": 2
            }
          ],
          "titulo": "Quiz de Cultura General"
        },
        "2": {
          "descripcion": "Formulario destinado como evaluación de la unidad I del la materia de Redes de Computadoras",
          "id": 2,
          "id_origen": 2,
          "id_usuario": "50dCx2KOsBO8BiKb6MNFGsAEr2S2",
          "id_usuario_origen": "50dCx2KOsBO8BiKb6MNFGsAEr2S2",
          "preguntas": [
            null,
            {
              "id": "1",
              "opciones": [
                "red con cargo",
                "bucle local",
                "radial",
                "red distribuida"
              ],
              "pregunta": "El cable que conecta el CPE con la CO",
              "tipo": 2
            },
            {
              "id": "2",
              "opciones": [
                "radial",
                "oficina pequeña",
                "DCE",
                "red distribuida"
              ],
              "pregunta": "Se puede compartir una topología de conexión única de punto a multipunto en una sola interfaz del router",
              "tipo": 2
            },
            {
              "id": "3",
              "opciones": [
                "red con cargo",
                "red distribuida",
                "radial",
                "bucle local"
              ],
              "pregunta": "El cableado y los equipos dentro de la red del proveedor de servicios WAN",
              "tipo": 2
            },
            {
              "id": "4",
              "opciones": [
                "bucle local",
                "radial",
                "oficina pequeña",
                "red distribuida"
              ],
              "pregunta": "Empresas qué constan generalmente de una lan en un área que se conecta a internet",
              "tipo": 2
            },
            {
              "id": "5",
              "opciones": [
                "radial",
                "red distribuida",
                "oficina pequeña",
                "DCE"
              ],
              "pregunta": "Empresa multinacional que tiene una red distribuida en todo el mundo",
              "tipo": 2
            },
            {
              "id": "6",
              "opciones": [
                "WAN Ethernet",
                "Celular 3G/4G",
                "VSAT",
                "Tecnología WAN Privada"
              ],
              "pregunta": "Permite las comunicaciones por satélite a router para conexiones wan",
              "tipo": 3
            },
            {
              "id": "7",
              "opciones": [
                "Dial-Up",
                "WAN Ethernet",
                "Dial-Up",
                "Tecnología WAN Privada"
              ],
              "pregunta": "Incluye Ethernet metropolitana, EoMPLS y VPLS como opciones de conexión WAN",
              "tipo": 3
            },
            {
              "id": "8",
              "opciones": [
                "Dial-Up",
                "Celular 3G/4G",
                "VSAT",
                "Tecnología WAN Pública"
              ],
              "pregunta": "Opción de ondas de radio y datos móviles",
              "tipo": 3
            },
            {
              "id": "9",
              "opciones": [
                "text"
              ],
              "pregunta": "¿Cuál es la dirección IP de la quinta subred de la dirección 200.30.45.0/28?",
              "tipo": 0
            }
          ],
          "titulo": "Redes de computadoras"
        },
        "25": {
          "descripcion": "Formulario destinado a conocer los podcast más populares entre un cierto grupo de personas",
          "id": 25,
          "id_origen": 25,
          "id_usuario": "50dCx2KOsBO8BiKb6MNFGsAEr2S2",
          "id_usuario_origen": "50dCx2KOsBO8BiKb6MNFGsAEr2S2",
          "preguntas": [
            null,
            {
              "id": 1,
              "opciones": [
                null,
                "text"
              ],
              "pregunta": "Podcast que más escuchas",
              "tipo": 0
            },
            {
              "id": 2,
              "opciones": [
                null,
                "text"
              ],
              "pregunta": "Podcast que terminas antes de tiempo",
              "tipo": 0
            }
          ],
          "quien_responde": {
            "n_quien_responde": 1
          },
          "titulo": "Podcast favorito"
        }
      },
      "Respuestas": {
        "1": [
          null,
          "Miguel Ángel",
          "Océano pacífico"
        ],
        "2": [
          null,
          "red con cargo",
          "oficina pequeña",
          "bucle local",
          "radial",
          "red distribuida",
          " | WAN Ethernet | VSAT",
          " | WAN Ethernet | Dial-Up",
          " | Tecnología WAN Pública | Dial-Up",
          "200.30.45.80"
        ],
        "25": [
          null,
          "Cosas",
          "La Cotorrisa"
        ]
      },
      "n_form": 26,
      "nombre": "Estudiante X",
      "password": "garc98:v",
      "quien_responde": {
        "1": {
          "1": "FzCXYFfIBbYiZ83UKldLXFW1WO13",
          "2": "50dCx2KOsBO8BiKb6MNFGsAEr2S2",
          "n_quien": "3"
        },
        "2": {
          "1": "FzCXYFfIBbYiZ83UKldLXFW1WO13",
          "2": "50dCx2KOsBO8BiKb6MNFGsAEr2S2",
          "3": "FzCXYFfIBbYiZ83UKldLXFW1WO13",
          "n_quien": "4"
        },
        "25": {
          "1": "50dCx2KOsBO8BiKb6MNFGsAEr2S2",
          "2": "50dCx2KOsBO8BiKb6MNFGsAEr2S2",
          "n_quien": "3"
        }
      },
      "usuario": "lgarciag@itsoeh.edu.mx"
    },
    "FzCXYFfIBbYiZ83UKldLXFW1WO13": {
      "Formularios": {
        "1": {
          "descripcion": "Formulario destinado como evaluación de la unidad I del la materia de Redes de Computadoras",
          "id": 1,
          "id_origen": 2,
          "id_usuario": "FzCXYFfIBbYiZ83UKldLXFW1WO13",
          "id_usuario_origen": "50dCx2KOsBO8BiKb6MNFGsAEr2S2",
          "preguntas": [
            null,
            {
              "id": 1,
              "opciones": [
                null,
                "red con cargo",
                "bucle local",
                "radial",
                "red distribuida"
              ],
              "pregunta": "El cable que conecta el CPE con la CO",
              "tipo": 2
            },
            {
              "id": 2,
              "opciones": [
                null,
                "radial",
                "oficina pequeña",
                "DCE",
                "red distribuida"
              ],
              "pregunta": "Se puede compartir una topología de conexión única de punto a multipunto en una sola interfaz del router",
              "tipo": 2
            },
            {
              "id": 3,
              "opciones": [
                null,
                "red con cargo",
                "red distribuida",
                "radial",
                "bucle local"
              ],
              "pregunta": "El cableado y los equipos dentro de la red del proveedor de servicios WAN",
              "tipo": 2
            },
            {
              "id": 4,
              "opciones": [
                null,
                "bucle local",
                "radial",
                "oficina pequeña",
                "red distribuida"
              ],
              "pregunta": "Empresas qué constan generalmente de una lan en un área que se conecta a internet",
              "tipo": 2
            },
            {
              "id": 5,
              "opciones": [
                null,
                "radial",
                "red distribuida",
                "oficina pequeña",
                "DCE"
              ],
              "pregunta": "Empresa multinacional que tiene una red distribuida en todo el mundo",
              "tipo": 2
            },
            {
              "id": 6,
              "opciones": [
                null,
                "WAN Ethernet",
                "Celular 3G/4G",
                "VSAT",
                "Tecnología WAN Privada"
              ],
              "pregunta": "Permite las comunicaciones por satélite a router para conexiones wan",
              "tipo": 3
            },
            {
              "id": 7,
              "opciones": [
                null,
                "DSL",
                "WAN Ethernet",
                "Dial-Up",
                "Tecnología WAN Privada"
              ],
              "pregunta": "Incluye Ethernet metropolitana, EoMPLS y VPLS como opciones de conexión WAN",
              "tipo": 3
            },
            {
              "id": 8,
              "opciones": [
                null,
                "Dial-Up",
                "Celular 3G/4G",
                "VSAT",
                "Tecnología WAN Pública"
              ],
              "pregunta": "Opción de ondas de radio y datos móviles",
              "tipo": 3
            },
            {
              "id": 9,
              "opciones": [
                null,
                "text"
              ],
              "pregunta": "¿Cuál es la dirección IP de la quinta subred de la dirección 200.30.45.0/28?",
              "tipo": 0
            }
          ],
          "titulo": "Redes de computadoras"
        },
        "2": {
          "descripcion": "Este formulario esta destinado a medir el nivel de conocimiento de cultura general",
          "id": 2,
          "id_origen": 1,
          "id_usuario": "FzCXYFfIBbYiZ83UKldLXFW1WO13",
          "id_usuario_origen": "50dCx2KOsBO8BiKb6MNFGsAEr2S2",
          "preguntas": [
            null,
            {
              "id": 1,
              "opciones": [
                null,
                "La Antártida",
                "Groenlandia",
                "Rusia",
                "Madagascar"
              ],
              "pregunta": "¿Cuál es el lugar más frío de la tierra?",
              "tipo": 2
            },
            {
              "id": 2,
              "opciones": [
                null,
                "Miguel de Cervantes",
                "Miguel Ángel",
                "Leonardo Da Vinci",
                "Octavio Paz"
              ],
              "pregunta": "¿Quién es el autor del Quijote?",
              "tipo": 2
            },
            {
              "id": 3,
              "opciones": [
                null,
                "Diego Rivera",
                "Leonardo Da Vinci",
                "Miguel Ángel",
                "Picasso"
              ],
              "pregunta": "¿Quién pintó La Última Cena?",
              "tipo": 2
            },
            {
              "id": 4,
              "opciones": [
                null,
                "Paris",
                "Italia",
                "Roma",
                "Francia"
              ],
              "pregunta": "¿Dónde se encuentra la Torre de Pisa?",
              "tipo": 2
            },
            {
              "id": 5,
              "opciones": [
                null,
                "Índico",
                "Atlántico",
                "Pacífico",
                "Antártico"
              ],
              "pregunta": "¿Cuál es el océano más grande del mundo?",
              "tipo": 2
            },
            {
              "id": 6,
              "opciones": [
                null,
                "Freddie Mercury",
                "Jim Morrison",
                "Elvis Presley",
                "Axl Rose"
              ],
              "pregunta": "¿Quién es conocido como el Rey del Rock?",
              "tipo": 2
            },
            {
              "id": 7,
              "opciones": [
                null,
                "Óscar's",
                "Globos de Oro",
                "Grammy's",
                "Billboard",
                "Nobel",
                "Guinness"
              ],
              "pregunta": "¿Cuáles son los premios que se otorgan a películas, series o actores?",
              "tipo": 3
            }
          ],
          "titulo": "Quiz de Cultura general"
        },
        "3": {
          "descripcion": "Este formulario tiene la finalidad de evaluar los conocimientos adquiridos sobre riesgos en el tema 3",
          "id": 3,
          "id_origen": 3,
          "id_usuario": "FzCXYFfIBbYiZ83UKldLXFW1WO13",
          "id_usuario_origen": "50dCx2KOsBO8BiKb6MNFGsAEr2S2",
          "preguntas": [
            null,
            {
              "id": 1,
              "opciones": [
                null,
                "Verdadero",
                "Falso"
              ],
              "pregunta": "¿La probabilidad y los usos son elementos de un riesgo?",
              "tipo": 2
            },
            {
              "id": 2,
              "opciones": [
                null,
                "Verdadero",
                "Falso"
              ],
              "pregunta": "¿Los riesgos endógenos son aquellos que no podemos controlar y se deben analizar profundamente?",
              "tipo": 2
            },
            {
              "id": 3,
              "opciones": [
                null,
                "Verdadero",
                "Falso"
              ],
              "pregunta": "¿Los riesgos exógenos son aquellos que podemos controlar dentro de la infraestructura de red?",
              "tipo": 2
            },
            {
              "id": 4,
              "opciones": [
                null,
                "Infraestructura, servicios y usuarios",
                "Infraestructura, internet y usuarios",
                "Infraestructura, internet y dispositivos"
              ],
              "pregunta": "Para analizar los riesgos se debe considerar",
              "tipo": 2
            },
            {
              "id": 5,
              "opciones": [
                null,
                "Punto de activación, plan de contingencia y análisis de respuesta",
                "Punto de activación, plan de contingencia y acción preventiva"
              ],
              "pregunta": "Para planificar el análisis de los riesgos se consideran:",
              "tipo": 2
            },
            {
              "id": 6,
              "opciones": [
                null,
                "Evitar, Transferir, Modificar, Aceptar",
                "Evitar, Transferir, Mitigar, Aceptar"
              ],
              "pregunta": "Estrategias para dar respuesta a los riesgos",
              "tipo": 2
            }
          ],
          "titulo": "Quiz Tema 3"
        },
        "5": {
          "descripcion": "Esta quiz tiene la finalidad de medir el nivel de conocimiento de cultura general de los usuarios.",
          "id": 5,
          "id_origen": 1,
          "id_usuario": "FzCXYFfIBbYiZ83UKldLXFW1WO13",
          "id_usuario_origen": "50dCx2KOsBO8BiKb6MNFGsAEr2S2",
          "preguntas": [
            {
              "id": "1",
              "opciones": [
                "Van Gogh",
                "Da Vinci",
                "Miguel Ángel",
                "Diego Rivera"
              ],
              "pregunta": "¿Quién pintó La Noche Estrellada?",
              "tipo": 2
            },
            {
              "id": "2",
              "opciones": [
                "Océano pacífico",
                "Océano atlántico",
                "Océano índico",
                "Océano ártico"
              ],
              "pregunta": "¿Cuál es el Océano más grande del mundo?",
              "tipo": 2
            }
          ],
          "titulo": "Quiz de Cultura General"
        },
        "6": {
          "descripcion": "Formulario destinado como evaluación de la unidad I del la materia de Redes de Computadoras",
          "id": 6,
          "id_origen": 2,
          "id_usuario": "FzCXYFfIBbYiZ83UKldLXFW1WO13",
          "id_usuario_origen": "50dCx2KOsBO8BiKb6MNFGsAEr2S2",
          "preguntas": [
            {
              "id": "1",
              "opciones": [
                "red con cargo",
                "bucle local",
                "radial",
                "red distribuida"
              ],
              "pregunta": "El cable que conecta el CPE con la CO",
              "tipo": 2
            },
            {
              "id": "2",
              "opciones": [
                "radial",
                "oficina pequeña",
                "DCE",
                "red distribuida"
              ],
              "pregunta": "Se puede compartir una topología de conexión única de punto a multipunto en una sola interfaz del router",
              "tipo": 2
            },
            {
              "id": "3",
              "opciones": [
                "red con cargo",
                "red distribuida",
                "radial",
                "bucle local"
              ],
              "pregunta": "El cableado y los equipos dentro de la red del proveedor de servicios WAN",
              "tipo": 2
            },
            {
              "id": "4",
              "opciones": [
                "bucle local",
                "radial",
                "oficina pequeña",
                "red distribuida"
              ],
              "pregunta": "Empresas qué constan generalmente de una lan en un área que se conecta a internet",
              "tipo": 2
            },
            {
              "id": "5",
              "opciones": [
                "radial",
                "red distribuida",
                "oficina pequeña",
                "DCE"
              ],
              "pregunta": "Empresa multinacional que tiene una red distribuida en todo el mundo",
              "tipo": 2
            },
            {
              "id": "6",
              "opciones": [
                "WAN Ethernet",
                "Celular 3G/4G",
                "VSAT",
                "Tecnología WAN Privada"
              ],
              "pregunta": "Permite las comunicaciones por satélite a router para conexiones wan",
              "tipo": 3
            },
            {
              "id": "7",
              "opciones": [
                "DSL",
                "WAN Ethernet",
                "Dial-Up",
                "Tecnología WAN Privada"
              ],
              "pregunta": "Incluye Ethernet metropolitana, EoMPLS y VPLS como opciones de conexión WAN",
              "tipo": 3
            },
            {
              "id": "8",
              "opciones": [
                "Dial-Up",
                "Celular 3G/4G",
                "VSAT",
                "Tecnología WAN Pública"
              ],
              "pregunta": "Opción de ondas de radio y datos móviles",
              "tipo": 3
            },
            {
              "id": "9",
              "opciones": [
                "text"
              ],
              "pregunta": "¿Cuál es la dirección IP de la quinta subred de la dirección 200.30.45.0/28?",
              "tipo": 0
            }
          ],
          "titulo": "Redes de computadoras"
        },
        "24": {
          "descripcion": "Formularios para conocer la experiencia laboral con la que cuentan las personas de 30 años.",
          "id": 24,
          "id_origen": 24,
          "id_usuario": "FzCXYFfIBbYiZ83UKldLXFW1WO13",
          "id_usuario_origen": "FzCXYFfIBbYiZ83UKldLXFW1WO13",
          "preguntas": [
            null,
            {
              "id": 1,
              "opciones": [
                null,
                "text"
              ],
              "pregunta": "Cuál consideras que es la importancia de la experiencia laboral.",
              "tipo": 0
            },
            {
              "id": 2,
              "opciones": [
                null,
                "1",
                "2",
                "3",
                "4"
              ],
              "pregunta": "Número de trabajos en los que te has desempeñado",
              "tipo": 2
            },
            {
              "id": 3,
              "opciones": [
                null,
                "1 año",
                "2 años",
                "3 años",
                "4 años"
              ],
              "pregunta": "Tiempo en el que has desempeñado cada trabajo",
              "tipo": 2
            }
          ],
          "quien_responde": {
            "n_quien_responde": 1
          },
          "titulo": "Experiencia laboral"
        },
        "25": {
          "descripcion": "Este formulario tiene la finalidad de evaluar los conocimientos adquiridos sobre riesgos en el tema 3",
          "id": 25,
          "id_origen": "3",
          "id_usuario": "FzCXYFfIBbYiZ83UKldLXFW1WO13",
          "id_usuario_origen": "FzCXYFfIBbYiZ83UKldLXFW1WO13",
          "preguntas": [
            {
              "id": "1",
              "opciones": [
                "Verdadero",
                "Falso"
              ],
              "pregunta": "¿La probabilidad y los usos son elementos de un riesgo?",
              "tipo": 2
            },
            {
              "id": "2",
              "opciones": [
                "Verdadero",
                "Falso"
              ],
              "pregunta": "¿Los riesgos endógenos son aquellos que no podemos controlar y se deben analizar profundamente?",
              "tipo": 2
            },
            {
              "id": "3",
              "opciones": [
                "Verdadero",
                "Falso"
              ],
              "pregunta": "¿Los riesgos exógenos son aquellos que podemos controlar dentro de la infraestructura de red?",
              "tipo": 2
            },
            {
              "id": "4",
              "opciones": [
                "Infraestructura, servicios y usuarios",
                "Infraestructura, internet y usuarios",
                "Infraestructura, internet y dispositivos"
              ],
              "pregunta": "Para analizar los riesgos se debe considerar",
              "tipo": 2
            },
            {
              "id": "5",
              "opciones": [
                "Punto de activación, plan de contingencia y análisis de respuesta",
                "Punto de activación, plan de contingencia y acción preventiva"
              ],
              "pregunta": "Para planificar el análisis de los riesgos se consideran:",
              "tipo": 2
            },
            {
              "id": "6",
              "opciones": [
                "Evitar, Transferir, Modificar, Aceptar",
                "Evitar, Transferir, Mitigar, Aceptar"
              ],
              "pregunta": "Estrategias para dar respuesta a los riesgos",
              "tipo": 2
            }
          ],
          "titulo": "Quiz Tema 3"
        }
      },
      "Respuestas": {
        "2": [
          null,
          "La Antártida",
          "Miguel de Cervantes",
          "Leonardo Da Vinci",
          "Roma",
          "Pacífico",
          "Elvis Presley",
          " | Globos de Oro | Grammy's"
        ],
        "24": [
          null,
          "Muy Importante",
          "3",
          "4 años"
        ]
      },
      "n_form": 28,
      "nombre": "Luis Andrés",
      "password": "garc98:v",
      "quien_responde": {
        "2": {
          "1": "UnKQpUz2pUWFPxmFHwD920tabi53",
          "2": "UnKQpUz2pUWFPxmFHwD920tabi53",
          "3": "UnKQpUz2pUWFPxmFHwD920tabi53",
          "n_quien": "4"
        },
        "3": {
          "1": "kff5pc7zBGQl7WnQskDebHD4VnB2",
          "n_quien": "2"
        },
        "24": {
          "1": "FzCXYFfIBbYiZ83UKldLXFW1WO13",
          "n_quien": "2"
        }
      },
      "usuario": "labuklmf@gmail.com"
    },
    "Prseqzfd7YOb2SUzD3Awq8FGHmK2": {
      "n_form": 1,
      "nombre": "Milli",
      "password": "milli123",
      "usuario": "milli.lugo96@gmail.com"
    },
    "UnKQpUz2pUWFPxmFHwD920tabi53": {
      "Formularios": [
        null,
        {
          "descripcion": "Descripción del formulario",
          "id": 1,
          "id_origen": 1,
          "id_usuario": "UnKQpUz2pUWFPxmFHwD920tabi53",
          "id_usuario_origen": "UnKQpUz2pUWFPxmFHwD920tabi53",
          "preguntas": [
            null,
            {
              "id": 1,
              "opciones": [
                null,
                "text"
              ],
              "pregunta": "¿Cuáles son los colores primarios?",
              "tipo": 0
            },
            {
              "id": 2,
              "opciones": [
                null,
                "text"
              ],
              "pregunta": "¿Qué opinas de las vacunas?",
              "tipo": 1
            },
            {
              "id": 3,
              "opciones": [
                null,
                "Rojo",
                "Azul",
                "Amarillo",
                "Naranja"
              ],
              "pregunta": "Selecciona los colores primarios",
              "tipo": 3
            },
            {
              "id": 4,
              "opciones": [
                null,
                "Negro",
                "Blanco",
                "Gris"
              ],
              "pregunta": "¿Cuál es la unión de todos los colores?",
              "tipo": 2
            }
          ],
          "titulo": "Formulario 1"
        },
        {
          "descripcion": "Formulario destinado como evaluación de la unidad I del la materia de Redes de Computadoras",
          "id": 2,
          "id_origen": 2,
          "id_usuario": "UnKQpUz2pUWFPxmFHwD920tabi53",
          "id_usuario_origen": "FzCXYFfIBbYiZ83UKldLXFW1WO13",
          "preguntas": [
            {
              "id": "1",
              "opciones": [
                "red con cargo",
                "bucle local",
                "radial",
                "red distribuida"
              ],
              "pregunta": "El cable que conecta el CPE con la CO",
              "tipo": 2
            },
            {
              "id": "2",
              "opciones": [
                "radial",
                "oficina pequeña",
                "DCE",
                "red distribuida"
              ],
              "pregunta": "Se puede compartir una topología de conexión única de punto a multipunto en una sola interfaz del router",
              "tipo": 2
            },
            {
              "id": "3",
              "opciones": [
                "red con cargo",
                "red distribuida",
                "radial",
                "bucle local"
              ],
              "pregunta": "El cableado y los equipos dentro de la red del proveedor de servicios WAN",
              "tipo": 2
            },
            {
              "id": "4",
              "opciones": [
                "bucle local",
                "radial",
                "oficina pequeña",
                "red distribuida"
              ],
              "pregunta": "Empresas qué constan generalmente de una lan en un área que se conecta a internet",
              "tipo": 2
            },
            {
              "id": "5",
              "opciones": [
                "radial",
                "red distribuida",
                "oficina pequeña",
                "DCE"
              ],
              "pregunta": "Empresa multinacional que tiene una red distribuida en todo el mundo",
              "tipo": 2
            },
            {
              "id": "6",
              "opciones": [
                "WAN Ethernet",
                "Celular 3G/4G",
                "VSAT",
                "Tecnología WAN Privada"
              ],
              "pregunta": "Permite las comunicaciones por satélite a router para conexiones wan",
              "tipo": 3
            },
            {
              "id": "7",
              "opciones": [
                "DSL",
                "WAN Ethernet",
                "Dial-Up",
                "Tecnología WAN Privada"
              ],
              "pregunta": "Incluye Ethernet metropolitana, EoMPLS y VPLS como opciones de conexión WAN",
              "tipo": 3
            },
            {
              "id": "8",
              "opciones": [
                "Dial-Up",
                "Celular 3G/4G",
                "VSAT",
                "Tecnología WAN Pública"
              ],
              "pregunta": "Opción de ondas de radio y datos móviles",
              "tipo": 3
            },
            {
              "id": "9",
              "opciones": [
                "text"
              ],
              "pregunta": "¿Cuál es la dirección IP de la quinta subred de la dirección 200.30.45.0/28?",
              "tipo": 0
            }
          ],
          "titulo": "Redes de computadoras"
        },
        {
          "descripcion": "Este formulario tiene la finalidad de evaluar los conocimientos adquiridos sobre riesgos en el tema 3",
          "id": 3,
          "id_origen": "3",
          "id_usuario": "UnKQpUz2pUWFPxmFHwD920tabi53",
          "id_usuario_origen": "50dCx2KOsBO8BiKb6MNFGsAEr2S2",
          "preguntas": [
            {
              "id": "1",
              "opciones": [
                "Verdadero",
                "Falso"
              ],
              "pregunta": "¿La probabilidad y los usos son elementos de un riesgo?",
              "tipo": 2
            },
            {
              "id": "2",
              "opciones": [
                "Verdadero",
                "Falso"
              ],
              "pregunta": "¿Los riesgos endógenos son aquellos que no podemos controlar y se deben analizar profundamente?",
              "tipo": 2
            },
            {
              "id": "3",
              "opciones": [
                "Verdadero",
                "Falso"
              ],
              "pregunta": "¿Los riesgos exógenos son aquellos que podemos controlar dentro de la infraestructura de red?",
              "tipo": 2
            },
            {
              "id": "4",
              "opciones": [
                "Infraestructura, servicios y usuarios",
                "Infraestructura, internet y usuarios",
                "Infraestructura, internet y dispositivos"
              ],
              "pregunta": "Para analizar los riesgos se debe considerar",
              "tipo": 2
            },
            {
              "id": "5",
              "opciones": [
                "Punto de activación, plan de contingencia y análisis de respuesta",
                "Punto de activación, plan de contingencia y acción preventiva"
              ],
              "pregunta": "Para planificar el análisis de los riesgos se consideran:",
              "tipo": 2
            },
            {
              "id": "6",
              "opciones": [
                "Evitar, Transferir, Modificar, Aceptar",
                "Evitar, Transferir, Mitigar, Aceptar"
              ],
              "pregunta": "Estrategias para dar respuesta a los riesgos",
              "tipo": 2
            }
          ],
          "titulo": "Quiz Tema 3"
        },
        {
          "descripcion": "Este formulario tiene la finalidad de evaluar los conocimientos adquiridos sobre riesgos en el tema 3",
          "id": 4,
          "id_origen": "3",
          "id_usuario": "UnKQpUz2pUWFPxmFHwD920tabi53",
          "id_usuario_origen": "FzCXYFfIBbYiZ83UKldLXFW1WO13",
          "preguntas": [
            {
              "id": "1",
              "opciones": [
                "Verdadero",
                "Falso"
              ],
              "pregunta": "¿La probabilidad y los usos son elementos de un riesgo?",
              "tipo": 2
            },
            {
              "id": "2",
              "opciones": [
                "Verdadero",
                "Falso"
              ],
              "pregunta": "¿Los riesgos endógenos son aquellos que no podemos controlar y se deben analizar profundamente?",
              "tipo": 2
            },
            {
              "id": "3",
              "opciones": [
                "Verdadero",
                "Falso"
              ],
              "pregunta": "¿Los riesgos exógenos son aquellos que podemos controlar dentro de la infraestructura de red?",
              "tipo": 2
            },
            {
              "id": "4",
              "opciones": [
                "Infraestructura, servicios y usuarios",
                "Infraestructura, internet y usuarios",
                "Infraestructura, internet y dispositivos"
              ],
              "pregunta": "Para analizar los riesgos se debe considerar",
              "tipo": 2
            },
            {
              "id": "5",
              "opciones": [
                "Punto de activación, plan de contingencia y análisis de respuesta",
                "Punto de activación, plan de contingencia y acción preventiva"
              ],
              "pregunta": "Para planificar el análisis de los riesgos se consideran:",
              "tipo": 2
            },
            {
              "id": "6",
              "opciones": [
                "Evitar, Transferir, Modificar, Aceptar",
                "Evitar, Transferir, Mitigar, Aceptar"
              ],
              "pregunta": "Estrategias para dar respuesta a los riesgos",
              "tipo": 2
            }
          ],
          "titulo": "Quiz Tema 3"
        },
        {
          "descripcion": "Este formulario tiene la finalidad de evaluar los conocimientos adquiridos sobre riesgos en el tema 3",
          "id": 5,
          "id_origen": "3",
          "id_usuario": "UnKQpUz2pUWFPxmFHwD920tabi53",
          "id_usuario_origen": "FzCXYFfIBbYiZ83UKldLXFW1WO13",
          "preguntas": [
            {
              "id": "1",
              "opciones": [
                "Verdadero",
                "Falso"
              ],
              "pregunta": "¿La probabilidad y los usos son elementos de un riesgo?",
              "tipo": 2
            },
            {
              "id": "2",
              "opciones": [
                "Verdadero",
                "Falso"
              ],
              "pregunta": "¿Los riesgos endógenos son aquellos que no podemos controlar y se deben analizar profundamente?",
              "tipo": 2
            },
            {
              "id": "3",
              "opciones": [
                "Verdadero",
                "Falso"
              ],
              "pregunta": "¿Los riesgos exógenos son aquellos que podemos controlar dentro de la infraestructura de red?",
              "tipo": 2
            },
            {
              "id": "4",
              "opciones": [
                "Infraestructura, servicios y usuarios",
                "Infraestructura, internet y usuarios",
                "Infraestructura, internet y dispositivos"
              ],
              "pregunta": "Para analizar los riesgos se debe considerar",
              "tipo": 2
            },
            {
              "id": "5",
              "opciones": [
                "Punto de activación, plan de contingencia y análisis de respuesta",
                "Punto de activación, plan de contingencia y acción preventiva"
              ],
              "pregunta": "Para planificar el análisis de los riesgos se consideran:",
              "tipo": 2
            },
            {
              "id": "6",
              "opciones": [
                "Evitar, Transferir, Modificar, Aceptar",
                "Evitar, Transferir, Mitigar, Aceptar"
              ],
              "pregunta": "Estrategias para dar respuesta a los riesgos",
              "tipo": 2
            }
          ],
          "titulo": "Quiz Tema 3"
        },
        {
          "descripcion": "Este formulario tiene la finalidad de evaluar los conocimientos adquiridos sobre riesgos en el tema 3",
          "id": 6,
          "id_origen": "3",
          "id_usuario": "UnKQpUz2pUWFPxmFHwD920tabi53",
          "id_usuario_origen": "FzCXYFfIBbYiZ83UKldLXFW1WO13",
          "preguntas": [
            {
              "id": "1",
              "opciones": [
                "Verdadero",
                "Falso"
              ],
              "pregunta": "¿La probabilidad y los usos son elementos de un riesgo?",
              "tipo": 2
            },
            {
              "id": "2",
              "opciones": [
                "Verdadero",
                "Falso"
              ],
              "pregunta": "¿Los riesgos endógenos son aquellos que no podemos controlar y se deben analizar profundamente?",
              "tipo": 2
            },
            {
              "id": "3",
              "opciones": [
                "Verdadero",
                "Falso"
              ],
              "pregunta": "¿Los riesgos exógenos son aquellos que podemos controlar dentro de la infraestructura de red?",
              "tipo": 2
            },
            {
              "id": "4",
              "opciones": [
                "Infraestructura, servicios y usuarios",
                "Infraestructura, internet y usuarios",
                "Infraestructura, internet y dispositivos"
              ],
              "pregunta": "Para analizar los riesgos se debe considerar",
              "tipo": 2
            },
            {
              "id": "5",
              "opciones": [
                "Punto de activación, plan de contingencia y análisis de respuesta",
                "Punto de activación, plan de contingencia y acción preventiva"
              ],
              "pregunta": "Para planificar el análisis de los riesgos se consideran:",
              "tipo": 2
            },
            {
              "id": "6",
              "opciones": [
                "Evitar, Transferir, Modificar, Aceptar",
                "Evitar, Transferir, Mitigar, Aceptar"
              ],
              "pregunta": "Estrategias para dar respuesta a los riesgos",
              "tipo": 2
            }
          ],
          "titulo": "Quiz Tema 3"
        }
      ],
      "Respuestas": [
        null,
        [
          null,
          "Rojo, Amarillo, Azul",
          "Son la mejor opción para curar enfermedades ",
          " | Rojo | Azul | Amarillo | AzulAzul",
          "Negro"
        ],
        [
          null,
          "red con cargo",
          "oficina pequeña",
          "bucle local",
          "radial",
          "oficina pequeña",
          " | VSAT | Celular 3G/4G",
          " | DSL | WAN Ethernet",
          " | VSAT | Tecnología WAN Pública",
          "200.30.45.80"
        ],
        [
          null,
          "Falso",
          "Falso",
          "Falso",
          "Infraestructura, internet y usuarios",
          "Punto de activación, plan de contingencia y análisis de respuesta",
          "Evitar, Transferir, Mitigar, Aceptar"
        ]
      ],
      "n_form": 8,
      "nombre": "Luis García",
      "password": "garc98:v",
      "quien_responde": [
        null,
        {
          "1": "UnKQpUz2pUWFPxmFHwD920tabi53",
          "n_quien": "2"
        }
      ],
      "usuario": "luisxdoficiall@gmail.com"
    },
    "kff5pc7zBGQl7WnQskDebHD4VnB2": {
      "Formularios": {
        "1": {
          "descripcion": "Formulario destinado para recabar información escolar de usuarios específicos",
          "id": 1,
          "id_origen": 1,
          "id_usuario": "kff5pc7zBGQl7WnQskDebHD4VnB2",
          "id_usuario_origen": "kff5pc7zBGQl7WnQskDebHD4VnB2",
          "preguntas": [
            null,
            {
              "id": 1,
              "opciones": [
                null,
                "Si",
                "No"
              ],
              "pregunta": "En este momento, ¿Te encuentras estudiando?",
              "tipo": 2
            }
          ],
          "quien_responde": {
            "n_quien_responde": 1
          },
          "titulo": "Información escolar"
        },
        "2": {
          "descripcion": "Descripción del formulario X con respuestas X",
          "id": 2,
          "id_origen": 2,
          "id_usuario": "kff5pc7zBGQl7WnQskDebHD4VnB2",
          "id_usuario_origen": "kff5pc7zBGQl7WnQskDebHD4VnB2",
          "preguntas": [
            null,
            {
              "id": 1,
              "opciones": [
                null,
                "text"
              ],
              "pregunta": "Nombre del personaje X",
              "tipo": 0
            },
            {
              "id": 2,
              "opciones": [
                null,
                "text"
              ],
              "pregunta": "Que opinas sobre la personalidad del personaje X",
              "tipo": 1
            }
          ],
          "quien_responde": {
            "n_quien_responde": 1
          },
          "titulo": "Formulario X"
        },
        "7": {
          "descripcion": "Este formulario tiene la finalidad de evaluar los conocimientos adquiridos sobre riesgos en el tema 3",
          "id": 7,
          "id_origen": "3",
          "id_usuario": "kff5pc7zBGQl7WnQskDebHD4VnB2",
          "id_usuario_origen": "FzCXYFfIBbYiZ83UKldLXFW1WO13",
          "preguntas": [
            {
              "id": "1",
              "opciones": [
                "Verdadero",
                "Falso"
              ],
              "pregunta": "¿La probabilidad y los usos son elementos de un riesgo?",
              "tipo": 2
            },
            {
              "id": "2",
              "opciones": [
                "Verdadero",
                "Falso"
              ],
              "pregunta": "¿Los riesgos endógenos son aquellos que no podemos controlar y se deben analizar profundamente?",
              "tipo": 2
            },
            {
              "id": "3",
              "opciones": [
                "Verdadero",
                "Falso"
              ],
              "pregunta": "¿Los riesgos exógenos son aquellos que podemos controlar dentro de la infraestructura de red?",
              "tipo": 2
            },
            {
              "id": "4",
              "opciones": [
                "Infraestructura, servicios y usuarios",
                "Infraestructura, internet y usuarios",
                "Infraestructura, internet y dispositivos"
              ],
              "pregunta": "Para analizar los riesgos se debe considerar",
              "tipo": 2
            },
            {
              "id": "5",
              "opciones": [
                "Punto de activación, plan de contingencia y análisis de respuesta",
                "Punto de activación, plan de contingencia y acción preventiva"
              ],
              "pregunta": "Para planificar el análisis de los riesgos se consideran:",
              "tipo": 2
            },
            {
              "id": "6",
              "opciones": [
                "Evitar, Transferir, Modificar, Aceptar",
                "Evitar, Transferir, Mitigar, Aceptar"
              ],
              "pregunta": "Estrategias para dar respuesta a los riesgos",
              "tipo": 2
            }
          ],
          "titulo": "Quiz Tema 3"
        }
      },
      "Respuestas": {
        "2": [
          null,
          "Personaje X",
          "Tiene Una Personalidad X"
        ],
        "7": [
          null,
          "Verdadero",
          "Falso",
          "Verdadero",
          "Infraestructura, internet y usuarios",
          "Punto de activación, plan de contingencia y acción preventiva",
          "Evitar, Transferir, Modificar, Aceptar"
        ]
      },
      "n_form": 9,
      "nombre": "Luis X",
      "password": "garc98:v",
      "quien_responde": {
        "2": {
          "1": "kff5pc7zBGQl7WnQskDebHD4VnB2",
          "n_quien": "2"
        }
      },
      "usuario": "lagarciag30@gmail.com"
    },
    "voz4AWaBlgXeXjuxl8623fNpcQo1": {
      "n_form": 1,
      "nombre": "Paola Hoch",
      "password": "bauhaus77",
      "usuario": "paolawells04@gmail.com"
    },
    "wmoQTl43p8cbuktVZ7BjKp0SXmk1": {
      "n_form": 1,
      "nombre": "Roberto Rangel",
      "password": "1234t678",
      "usuario": "robertorangel84@gmail.com"
    },
    "xT5TnnBgumOFgcVUxjioxCytO2I2": {
      "Formularios": [
        null,
        {
          "descripcion": "Agrega una descripción",
          "id": 1,
          "id_usuario": "xT5TnnBgumOFgcVUxjioxCytO2I2",
          "titulo": "gelier"
        },
        {
          "descripcion": "dxcx",
          "id": 2,
          "id_usuario": "xT5TnnBgumOFgcVUxjioxCytO2I2",
          "preguntas": [
            null,
            {
              "id": 1,
              "opciones": [
                null,
                "text"
              ],
              "pregunta": "ssss",
              "tipo": 0
            }
          ],
          "titulo": "axbx"
        },
        {
          "descripcion": "nswnnw",
          "id": 3,
          "id_usuario": "xT5TnnBgumOFgcVUxjioxCytO2I2",
          "preguntas": [
            null,
            {
              "id": 1,
              "opciones": [
                null,
                "text"
              ],
              "pregunta": "ssss",
              "tipo": 0
            }
          ],
          "titulo": "nasnns"
        },
        {
          "descripcion": "ftgg",
          "id": 4,
          "id_usuario": "xT5TnnBgumOFgcVUxjioxCytO2I2",
          "preguntas": [
            null,
            {
              "id": 1,
              "opciones": [
                null,
                "text"
              ],
              "pregunta": "ssss",
              "tipo": 0
            }
          ],
          "titulo": "fggg"
        },
        {
          "descripcion": "cbcch",
          "id": 5,
          "id_usuario": "xT5TnnBgumOFgcVUxjioxCytO2I2",
          "titulo": "ghcxc"
        },
        {
          "descripcion": "by",
          "id": 6,
          "id_usuario": "xT5TnnBgumOFgcVUxjioxCytO2I2",
          "preguntas": [
            null,
            {
              "id": 1,
              "opciones": [
                null,
                "text"
              ],
              "pregunta": "a",
              "tipo": 0
            },
            {
              "id": 2,
              "opciones": [
                null,
                "text"
              ],
              "pregunta": "b",
              "tipo": 0
            },
            {
              "id": 3,
              "opciones": [
                null,
                "text"
              ],
              "pregunta": "c",
              "tipo": 0
            }
          ],
          "titulo": "ax"
        },
        {
          "descripcion": "ooooooooooo",
          "id": 7,
          "id_usuario": "xT5TnnBgumOFgcVUxjioxCytO2I2",
          "preguntas": [
            null,
            {
              "id": 1,
              "opciones": [
                null,
                "text"
              ],
              "pregunta": "ooooo",
              "tipo": 0
            },
            {
              "id": 2,
              "opciones": [
                null,
                "text"
              ],
              "pregunta": "ooooooo",
              "tipo": 0
            },
            {
              "id": 3,
              "opciones": [
                null,
                "text"
              ],
              "pregunta": "oooooo",
              "tipo": 0
            }
          ],
          "titulo": "oooo"
        }
      ],
      "n_form": 8,
      "nombre": "axbx",
      "password": "123456",
      "usuario": "gelierjjj@gmail.com"
    }
  }
}